tehrandav.is - Mixed-effects ANOVA (BS + WS)
…
example1 <- read_delim("https://www.uvm.edu/~statdhtx/methods8/DataFiles/Tab14-4.dat", 
                       delim="\t")

Rows: 24 Columns: 7
── Column specification ────────────────────────────────────────────────────────
Delimiter: "\t"
dbl (7): Group, Int1, Int2, Int3, Int4, Int5, Int6

ℹ Use `spec()` to retrieve the full column specification for this data.
ℹ Specify the column types or set `show_col_types = FALSE` to quiet this message.

example1

# A tibble: 24 × 7
   Group  Int1  Int2  Int3  Int4  Int5  Int6
   <dbl> <dbl> <dbl> <dbl> <dbl> <dbl> <dbl>
 1     1   150    44    71    59   132    74
 2     1   335   270   156   160   118   230
 3     1   149    52    91   115    43   154
 4     1   159    31   127   212    71   224
 5     1   159     0    35    75    71    34
 6     1   292   125   184   246   225   170
 7     1   297   187    66    96   209    74
 8     1   170    37    42    66   114    81
 9     2   346   175   177   192   239   140
10     2   426   329   236    76   102   232
# ℹ 14 more rows
…
# convert 'Interval' to factor:
example1_long$Interval <- as.factor(example1_long$Interval)

# Name the dummy variables for 'Group' & convert to factor:
example1_long$Group <- recode_factor(example1_long$Group,
                                     "1" = "Control",
                                     "2" = "Same",
                                     "3" = "Different")

example1_long

# A tibble: 144 × 4
   Group   SubjectID Interval Activity
   <fct>       <int> <fct>       <dbl>
 1 Control         1 Int1          150
 2 Control         1 Int2           44
 3 Control         1 Int3           71
 4 Control         1 Int4           59
 5 Control         1 Int5          132
 6 Control         1 Int6           74
 7 Control         2 Int1          335
 8 Control         2 Int2          270
 9 Control         2 Int3          156
10 Control         2 Int4          160
# ℹ 134 more rows
…
To make the preliminary test on variances is rather like putting to sea in a rowing boat to find out whether conditions are sufficiently calm for an ocean liner to leave port!

This reinforces our in class discussions about the robustness of ANOVA. Nonetheless, we should still test to get an impression of how far we are deviating from our assumptions. Here, we are testing for homogeneity of covariance matrices. To do so we will use Box’s (1949) M test (be sure to check the class website for a link to the original article). In short, the test compares the product of the log determinants of the separate covariance matrices to the log determinant of the pooled covariance matrix, analogous to a likelihood ratio test. See here for how determinants are calculated. The test statistic uses a chi-square approximation. This test can be found in the heplots package.

Running the boxM: getting the data in WIDE format?!?!?

Well, this is awkward. In order to test this assumption the data needs structured with the within variable in wide format… which is exactly the way that it was when we originally downloaded it. In order to go from long format to wide format we can use the pivot_wider() function (or in this case we could just use our original data frame).

In this case we want our dependent variable Activity to be spread across differing columns of Interval. The generic form of the pivot_wider() function is pivot_wider(names_from = "column that has IV names", values_from = "column that contains DV"). Based on our needs then:

example1_wide <- example1_long %>% pivot_wider(names_from = "Interval", values_from = "Activity")
example1_wide

# A tibble: 24 × 8
   Group   SubjectID  Int1  Int2  Int3  Int4  Int5  Int6
   <fct>       <int> <dbl> <dbl> <dbl> <dbl> <dbl> <dbl>
 1 Control         1   150    44    71    59   132    74
 2 Control         2   335   270   156   160   118   230
 3 Control         3   149    52    91   115    43   154
 4 Control         4   159    31   127   212    71   224
 5 Control         5   159     0    35    75    71    34
 6 Control         6   292   125   184   246   225   170
 7 Control         7   297   187    66    96   209    74
 8 Control         8   170    37    42    66   114    81
 9 Same            9   346   175   177   192   239   140
10 Same           10   426   329   236    76   102   232
# ℹ 14 more rows
…
Rows: 40 Columns: 7
── Column specification ────────────────────────────────────────────────────────
Delimiter: "\t"
chr (5): Person, Pretest, Posttest, FU6, FU12
dbl (2): Condition, Sex

ℹ Use `spec()` to retrieve the full column specification for this data.
ℹ Specify the column types or set `show_col_types = FALSE` to quiet this message.

example2

# A tibble: 40 × 7
   Person Condition   Sex Pretest Posttest FU6   FU12 
   <chr>      <dbl> <dbl> <chr>   <chr>    <chr> <chr>
 1 01             1     1 07      22       13    14   
 2 02             1     1 25      10       17    24   
 3 03             1     1 50      36       49    23   
 4 04             1     1 16      38       34    24   
 5 05             1     1 33      25       24    25   
 6 06             1     1 10      07       23    26   
 7 07             1     1 13      33       27    24   
 8 08             1     1 22      20       21    11   
 9 09             1     1 04      00       12    00   
10 10             1     1 17      16       20    10   
# ℹ 30 more rows
…
and give names to our number-coded variables in Condition and Sex:

example2_long$Condition <- recode_factor(example2_long$Condition, 
                                         "1"="BST", 
                                         "2"="EC")

example2_long$Sex <- recode_factor(example2_long$Sex, 
                                   "1"="M", 
                                   "2"="F")

example2_long

# A tibble: 160 × 5
   Person Condition Sex   Time     Freq 
   <chr>  <fct>     <fct> <chr>    <chr>
 1 01     BST       M     Pretest  07   
 2 01     BST       M     Posttest 22   
 3 01     BST       M     FU6      13   
 4 01     BST       M     FU12     14   
 5 02     BST       M     Pretest  25   
 6 02     BST       M     Posttest 10   
 7 02     BST       M     FU6      17   
 8 02     BST       M     FU12     24   
 9 03     BST       M     Pretest  50   
10 03     BST       M     Posttest 36   
# ℹ 150 more rows
…
