PSYC 7014: Graduate Statistics 1 - 9 The structure of your data
…
And now look at the data:

reading_data

# A tibble: 66 × 7
      id group   pretest1 pretest2 posttest1 posttest2 posttest3
   <dbl> <chr>      <dbl>    <dbl>     <dbl>     <dbl>     <dbl>
 1     1 Control        4        3         5         4        41
 2     2 Control        6        5         9         5        41
 3     3 Control        9        4         5         3        43
 4     4 Control       12        6         8         5        46
 5     5 Control       16        5        10         9        46
 6     6 Control       15       13         9         8        45
 7     7 Control       14        8        12         5        45
 8     8 Control       12        7         5         5        32
 9     9 Control       12        3         8         7        33
10    10 Control        8        8         7         7        39
# ℹ 56 more rows
…
Working with Data in the Tidyverse

Cleaning Data in R

9.2 Getting data from WIDE to LONG

So the data are in WIDE format, each line has multiple observations of data that are being compared. Here both pretest1 scores and posttest1 scores are on the same line. In order to make life easier for analysis and plotting in ggplot, we need to get the data into LONG format (pretest1 scores and posttest1 scores are on different lines). This can be done using the pivot_longer function from the tidyr package.

Before pivoting your data, one thing to consider is whether or not you have a column that defines each subject. In this case we have id. This tells R that these data are coming from the same subject and will allow R to connect these data when performing analysis. This watching will be crucially important later on when we perform t-tests and ANOVAs.

Using pivot_longer(): This function takes a number of arguments, but for us right now, the most important are data: your dataframe; cols: which columns to gather; names_to: what do you want the header of the collaped nonminal variables to be? Here, we might ask what title would subsume both pretest1 and posttest1. I’ll choose time ; values_to: what do the values represent, here I choose reading_score:

pivot_longer(reading_data_select,cols = c("pretest1","posttest1"),names_to = "time", values_to = "reading_score")

# A tibble: 132 × 4
      id group   time      reading_score
   <dbl> <chr>   <chr>             <dbl>
 1     1 Control pretest1              4
 2     1 Control posttest1             5
 3     2 Control pretest1              6
 4     2 Control posttest1             9
 5     3 Control pretest1              9
 6     3 Control posttest1             5
 7     4 Control pretest1             12
 8     4 Control posttest1             8
 9     5 Control pretest1             16
10     5 Control posttest1            10
# ℹ 122 more rows
…
