PSYC 7014: Graduate Statistics 1 - 10 Measures of central tendency
…
[1] "spec_tbl_df" "tbl_df"      "tbl"         "data.frame" 

names(aggression_data)

[1] "X1" "X2" "X3" "X4" "X5" "X6" "X7" "X8"

For the sake of you’re own sanity, you should always provide headers for your data frame if it does not come with them. Building on last week’s homework, we can fix this by invoking the following to add the appropriate headers

names(aggression_data) <- c('age', 'BPAQ', 'AISS', 'alcohol', 'BIS', 'NEOc', 'gender', 'NEOo')

And now checking the modified data frame:

aggression_data

# A tibble: 275 × 8
     age  BPAQ  AISS alcohol   BIS  NEOc gender  NEOo
   <dbl> <dbl> <dbl>   <dbl> <dbl> <dbl>  <dbl> <dbl>
 1    18  2.62  2.65      28  2.15  2.83      1  2.92
 2    18  2.24  2.85      NA  3.08  2.5       1  4.17
 3    20  2.72  3.05      80  3     2.75      1  3.92
 4    17  1.93  2.65      28  1.85  3.42      1  4.17
 5    17  2.72  2.95      10  2.08  3.58      0  3.5 
 6    17  2.45  1.95      12  2.62  3.83      1  3.25
 7    17  1.90  2.55      21  2.19  3.67      1  4.25
 8    17  2.59  2.3        3  2.19  3.42      1  2.58
 9    17  2.48  2         21  2.35  3.08      1  3.33
10    17  1.97  2.15       0  2.15  3.42      1  3.08
# ℹ 265 more rows
…
When you run the line above you’ll note at the end of the output it mentions Levels: 0 1. This is telling you that in this vector, there are two levels, gender = 0 and gender = 1. To connect this factorized vector to your original data set, you can either create a new column in the data set or overwrite the original gender column that you are replacing. For beginners, I would recommend adding a new column. To do this, let’s take advantage of some of those fancy tidyverse / dplyr skills you picked up from DataCamp / the Winter readings, in particular mutate(), see Winter p. 32:

# 1. create a new vector attached to the original data frame
#    using the dplyr::mutate function:

aggression_data <- mutate(aggression_data, fctr_Gender = factor(gender))
aggression_data

# A tibble: 275 × 9
     age  BPAQ  AISS alcohol   BIS  NEOc gender  NEOo fctr_Gender
   <dbl> <dbl> <dbl>   <dbl> <dbl> <dbl>  <dbl> <dbl> <fct>      
 1    18  2.62  2.65      28  2.15  2.83      1  2.92 1          
 2    18  2.24  2.85      NA  3.08  2.5       1  4.17 1          
 3    20  2.72  3.05      80  3     2.75      1  3.92 1          
 4    17  1.93  2.65      28  1.85  3.42      1  4.17 1          
 5    17  2.72  2.95      10  2.08  3.58      0  3.5  0          
 6    17  2.45  1.95      12  2.62  3.83      1  3.25 1          
 7    17  1.90  2.55      21  2.19  3.67      1  4.25 1          
 8    17  2.59  2.3        3  2.19  3.42      1  2.58 1          
 9    17  2.48  2         21  2.35  3.08      1  3.33 1          
10    17  1.97  2.15       0  2.15  3.42      1  3.08 1          
# ℹ 265 more rows
…
