PSYC 7014: Graduate Statistics 1 - 14 Means and other models
…
Here we will use R expand on this notion. We’ll also use this to get some more practice with variable assignment and working with vectors.

Let’s take a look at some age data (combined classes from previous years)…

names <- c("Tehran", "Carlos", "Jaquana", "Frenchy", "Taraneh","Corinne", "Cherish", "Sabrina", "Stephanie", "Taylor", "Sandra", "Emmanuel", "Jamie", "Heather", "Christine", "Dylanne", "Emily", "Tarcisio", "nabiha", "james", "chris", "margaret", "emily", "sarah", "nate", "tyra", "julia", "angela", "allie", "daniel", "sierra")
ages <- c(41, 31, 31, 21, 35, 31, 22, 22, 22, 24, 25, 31, 23, 22, 22, 23, 22, 37, 28,24,22,27,22,24,26,22,24,28,24,29,24)

We can take these two vectors and turn them into a data frame, using tibble() from tidyr (tidyverse).

library(tidyverse)
cohorts <- tibble("person" = names,
                    "age" = ages)
cohorts

# A tibble: 31 × 2
   person      age
   <chr>     <dbl>
 1 Tehran       41
 2 Carlos       31
 3 Jaquana      31
 4 Frenchy      21
 5 Taraneh      35
 6 Corinne      31
 7 Cherish      22
 8 Sabrina      22
 9 Stephanie    22
10 Taylor       24
# ℹ 21 more rows
…
# here "i" indexes which value from the range to pull, for example when i=1, we are pulling the first number in the sequence
for(i in 1:length(rangeAges)){
  guess <- rangeAges[i]
  diffScores <- (ages-guess)
  sumDiff <- sum(diffScores)
  
  # save results to sumDiffguess
  guessedAge[i] <- guess
  sumDiffguess[i] <- sumDiff
}

diffAges_df <- tibble(guessedAge,sumDiffguess) #combine the two vectors to single data frame
diffAges_df

# A tibble: 21 × 2
   guessedAge sumDiffguess
        <int>        <dbl>
 1         21          158
 2         22          127
 3         23           96
 4         24           65
 5         25           34
 6         26            3
 7         27          -28
 8         28          -59
 9         29          -90
10         30         -121
# ℹ 11 more rows
…
# here "i" indexes which value from the range to pull, for example when i=1, we are pulling the first number in the sequence
for(i in 1:length(rangeAges)){
  guess <- rangeAges[i]
  diffScores <- (ages-guess)
  SSDiff <- sum(diffScores^2)
  # save SS to SSguess
  guessedAge[i] <- guess
  SSguess[i] <- SSDiff
}

SS_Ages_df <- tibble(guessedAge,SSguess) #combine the two vectors to single data frame
show(SS_Ages_df)

# A tibble: 21 × 2
   guessedAge SSguess
        <int>   <dbl>
 1         21    1562
 2         22    1277
 3         23    1054
 4         24     893
 5         25     794
 6         26     757
 7         27     782
 8         28     869
 9         29    1018
10         30    1229
# ℹ 11 more rows
…
