tehrandav.is - Factorial ANOVA - The omnibus ANOVA and Main effects
…
Let’s grab the data from from the web. Note that for now we are going to ignore the covar column.

dataset <- read_delim("https://www.uvm.edu/~statdhtx/methods8/DataFiles/Sec13-5.dat", "\t", escape_double = FALSE, trim_ws = TRUE)

Rows: 135 Columns: 4
── Column specification ────────────────────────────────────────────────────────
Delimiter: "\t"
dbl (4): Task, Smkgrp, score, covar

ℹ Use `spec()` to retrieve the full column specification for this data.
ℹ Specify the column types or set `show_col_types = FALSE` to quiet this message.

dataset

# A tibble: 135 × 4
    Task Smkgrp score covar
   <dbl>  <dbl> <dbl> <dbl>
 1     1      1     9   107
 2     1      1     8   133
 3     1      1    12   123
 4     1      1    10    94
 5     1      1     7    83
 6     1      1    10    86
 7     1      1     9   112
 8     1      1    11   117
 9     1      1     8   130
10     1      1    10   111
# ℹ 125 more rows
…
