tehrandav.is - Analysis of Variance: the Factorial ANOVA - Interactions & Simple Effects ANOVA
…
ℹ Use `spec()` to retrieve the full column specification for this data.
ℹ Specify the column types or set `show_col_types = FALSE` to quiet this message.

dataset$PartID <- seq_along(dataset$score)
dataset$Task <- recode_factor(dataset$Task, "1" = "Pattern Recognition", "2" = "Cognitive", "3" = "Driving Simulation") 
dataset$Smkgrp <- recode_factor(dataset$Smkgrp, "3" = "Nonsmoking", "2" = "Delayed", "1" = "Active")

dataset_2by2 <- filter(dataset, Smkgrp!="Delayed" & Task!="Cognitive")

dataset_2by2

# A tibble: 60 × 5
   Task                Smkgrp score covar PartID
   <fct>               <fct>  <dbl> <dbl>  <int>
 1 Pattern Recognition Active     9   107      1
 2 Pattern Recognition Active     8   133      2
 3 Pattern Recognition Active    12   123      3
 4 Pattern Recognition Active    10    94      4
 5 Pattern Recognition Active     7    83      5
 6 Pattern Recognition Active    10    86      6
 7 Pattern Recognition Active     9   112      7
 8 Pattern Recognition Active    11   117      8
 9 Pattern Recognition Active     8   130      9
10 Pattern Recognition Active    10   111     10
# ℹ 50 more rows
…
