tehrandav.is - Dealing with Higher Order Factorial ANOVA
…
higherEx1 <- read_delim("https://raw.githubusercontent.com/tehrandavis/graduate_statistics/main/practice_datasets/ANOVA5_higherEx1.txt", delim = "\t")

Rows: 72 Columns: 5
── Column specification ────────────────────────────────────────────────────────
Delimiter: "\t"
chr (3): Grade, Lecture, Presentation
dbl (2): Subject, Score

ℹ Use `spec()` to retrieve the full column specification for this data.
ℹ Specify the column types or set `show_col_types = FALSE` to quiet this message.

show(higherEx1)

# A tibble: 72 × 5
   Subject Grade Lecture  Presentation Score
     <dbl> <chr> <chr>    <chr>        <dbl>
 1       1 5th   Physical Computer        53
 2       2 5th   Physical Computer        49
 3       3 5th   Physical Computer        47
 4       4 5th   Physical Computer        42
 5       5 5th   Physical Computer        51
 6       6 5th   Physical Computer        34
 7       7 5th   Physical Standard        44
 8       8 5th   Physical Standard        48
 9       9 5th   Physical Standard        35
10      10 5th   Physical Standard        18
# ℹ 62 more rows
…
