tehrandav.is - More examples of distributions
…
Sample

Of course we don’t have time or money to go around getting the height of 1 million men. Instead we get a sample of 25 from our population, pop_men_heights.

We can do this by:

# get a sample of heights
sample_mens_heights <- sample_n(pop_mens_heights, size = 25)
sample_mens_heights

# A tibble: 25 × 2
   person height
    <int>  <dbl>
 1 114883   187.
 2 140272   169.
 3 237481   159.
 4 811253   181.
 5 462344   166.
 6 657291   175.
 7 311193   177.
 8 643017   180.
 9 348107   164.
10 113025   179.
# ℹ 15 more rows
…
