tehrandav.is - Multiple comparisons in One-way ANOVA, pt. 2: planned contrasts
…
Warning: `read_table2()` was deprecated in readr 2.0.0.
ℹ Please use `read_table()` instead.

── Column specification ────────────────────────────────────────────────────────
cols(
  ID = col_character(),
  Group = col_double(),
  Time = col_double()
)

## check data, identify columns
dataset

# A tibble: 40 × 3
   ID    Group  Time
   <chr> <dbl> <dbl>
 1 01        1     3
 2 02        1     5
 3 03        1     1
 4 04        1     8
 5 05        1     1
 6 06        1     1
 7 07        1     4
 8 08        1     9
 9 09        2     2
10 10        2    12
# ℹ 30 more rows
…
── Column specification ────────────────────────────────────────────────────────
cols(
  ID = col_character(),
  Group = col_double(),
  Time = col_double()
)

## Group is numerically coded. Fixing this and turning to a factor
dataset$Group <- recode_factor(dataset$Group, "1"="MS","2"="MM","3"="SS","4"="SM","5"="McM")

dataset

# A tibble: 40 × 3
   ID    Group  Time
   <chr> <fct> <dbl>
 1 01    MS        3
 2 02    MS        5
 3 03    MS        1
 4 04    MS        8
 5 05    MS        1
 6 06    MS        1
 7 07    MS        4
 8 08    MS        9
 9 09    MM        2
10 10    MM       12
# ℹ 30 more rows
…
