PSYC 7014: Graduate Statistics 1 - 34 Multiple comparisons in One-way ANOVA, pt. 1: post hoc tests
…
Warning: `read_table2()` was deprecated in readr 2.0.0.
ℹ Please use `read_table()` instead.

── Column specification ────────────────────────────────────────────────────────
cols(
  ID = col_character(),
  Group = col_double(),
  Time = col_double()
)

# Step 1
## check data, identify columns
dataset

# A tibble: 40 × 3
   ID    Group  Time
   <chr> <dbl> <dbl>
 1 01        1     3
 2 02        1     5
 3 03        1     1
 4 04        1     8
 5 05        1     1
 6 06        1     1
 7 07        1     4
 8 08        1     9
 9 09        2     2
10 10        2    12
# ℹ 30 more rows
…
