PSYC 7014: Graduate Statistics 1 - 40 Within Subjects / Repeated Measures ANOVA
…
within_between <- read_csv("https://raw.githubusercontent.com/tehrandavis/graduate_statistics/main/practice_datasets/within_between.csv")

Rows: 36 Columns: 4
── Column specification ────────────────────────────────────────────────────────
Delimiter: ","
chr (1): Lecture
dbl (3): BetweenSubjects_ID, WithinSubjects_ID, Score

ℹ Use `spec()` to retrieve the full column specification for this data.
ℹ Specify the column types or set `show_col_types = FALSE` to quiet this message.

within_between

# A tibble: 36 × 4
   BetweenSubjects_ID WithinSubjects_ID Lecture  Score
                <dbl>             <dbl> <chr>    <dbl>
 1                  1                 1 Physical    53
 2                  2                 2 Physical    49
 3                  3                 3 Physical    47
 4                  4                 4 Physical    42
 5                  5                 5 Physical    51
 6                  6                 6 Physical    34
 7                  7                 7 Physical    44
 8                  8                 8 Physical    48
 9                  9                 9 Physical    35
10                 10                10 Physical    18
# ℹ 26 more rows
…
You’ll notice that the data set above is in wide format. Each subject is on a single row and each week is in its own column. Note that this is the preferred format for within subjects analysis for SPSS. However in R we want it in long format.

example1_long <- pivot_longer(example1,
                              cols = -Subject,
                              names_to = "Week", 
                              values_to = "Migraines")

example1_long$Week <- as.factor(example1_long$Week)
example1_long$Subject <- as.factor(example1_long$Subject)

example1_long

# A tibble: 45 × 3
   Subject Week  Migraines
   <fct>   <fct>     <dbl>
 1 1       Wk1          21
 2 1       Wk2          22
 3 1       Wk3           8
 4 1       Wk4           6
 5 1       Wk5           6
 6 2       Wk1          20
 7 2       Wk2          19
 8 2       Wk3          10
 9 2       Wk4           4
10 2       Wk5           4
# ℹ 35 more rows
…
example2_long <- read_csv("https://raw.githubusercontent.com/tehrandavis/graduate_statistics/main/practice_datasets/withinEx2.csv")

Rows: 36 Columns: 3
── Column specification ────────────────────────────────────────────────────────
Delimiter: ","
chr (1): Lecture
dbl (2): Subject, Score

ℹ Use `spec()` to retrieve the full column specification for this data.
ℹ Specify the column types or set `show_col_types = FALSE` to quiet this message.

example2_long

# A tibble: 36 × 3
   Subject Lecture  Score
     <dbl> <chr>    <dbl>
 1       1 Physical    53
 2       2 Physical    49
 3       3 Physical    47
 4       4 Physical    42
 5       5 Physical    51
 6       6 Physical    34
 7       7 Physical    44
 8       8 Physical    48
 9       9 Physical    35
10      10 Physical    18
# ℹ 26 more rows
…
