PSYC 7014: Graduate Statistics 1 - 41 Factorial RM-ANOVA and simple effects
…
factorial_df <- read_csv("https://raw.githubusercontent.com/tehrandavis/graduate_statistics/main/practice_datasets/withinEx3.csv")

Rows: 90 Columns: 4
── Column specification ────────────────────────────────────────────────────────
Delimiter: ","
chr (2): ProcessDepth, Day
dbl (2): Subject, Recalled

ℹ Use `spec()` to retrieve the full column specification for this data.
ℹ Specify the column types or set `show_col_types = FALSE` to quiet this message.

factorial_df

# A tibble: 90 × 4
   Subject Recalled ProcessDepth Day  
     <dbl>    <dbl> <chr>        <chr>
 1       1       14 High         Day1 
 2       2       10 High         Day1 
 3       3       13 High         Day1 
 4       4       14 High         Day1 
 5       5       12 High         Day1 
 6       6        8 High         Day1 
 7       7       13 High         Day1 
 8       8       11 High         Day1 
 9       9        9 High         Day1 
10      10       12 High         Day1 
# ℹ 80 more rows
…
