PSYC 7014: Graduate Statistics 1 - 25 Testing differences in means / t-test
…
I spoke a little bit about this issue in Week 2, Walkthrough 0.

25.1.2.1 Getting data from WIDE to LONG

So the data are in WIDE format, each line has multiple observations of data that are being compared. Here both Before scores and After scores are on the same line. In order to make life easier for analysis and plotting in ggplot, we need to get the data into LONG format (Before scores and After scores are on different lines). This can be done using the pivot_longer() function from the tidyr package.

Before gathering, one thing to consider is whether or not you have a column that defines each subject. In this case we have ID. This tells R that these data are coming from the same subject and will allow R to connect these data when performing analysis. That said, for t.test() this is not crucially important—t.test() assumes that the order of lines represents the order of subjects, e.g., the first Before line is matched to the first After line. Later on when we are doing ANOVA, however, this participant column will be important an we will need to add if it is missing.

Using pivot_longer(): This function takes a number of arguments, but for us right now, the most important are data: your dataframe; cols: which columns to gather; names_to: what do you want the header of the collaped nonminal variables to be? Here, we might ask what title would encapsulate both Before and After. I’ll choose treatment ; values_to: what do the values represent, here I choose weight. I’m just going to overwrite the original data frame:

anorexia_data <- pivot_longer(anorexia_data,cols = c("Before","After"),names_to = "treatment", values_to = "weight")
anorexia_data

# A tibble: 34 × 3
   ID    treatment weight
   <chr> <chr>      <dbl>
 1 01    Before      83.8
 2 01    After       95.2
 3 02    Before      83.3
 4 02    After       94.3
 5 03    Before      86  
 6 03    After       91.5
 7 04    Before      82.5
 8 04    After       91.9
 9 05    Before      86.7
10 05    After      100. 
# ℹ 24 more rows
…
Rows: 23 Columns: 3
── Column specification ────────────────────────────────────────────────────────
Delimiter: "\t"
chr (1): ID
dbl (2): Score, Group

ℹ Use `spec()` to retrieve the full column specification for this data.
ℹ Specify the column types or set `show_col_types = FALSE` to quiet this message.

As before, let’s take a look at the file structure:

show(stereotype_data)

# A tibble: 23 × 3
   ID    Score Group
   <chr> <dbl> <dbl>
 1 01        4     1
 2 02        9     1
 3 03       12     1
 4 04        8     1
 5 05        9     1
 6 06       13     1
 7 07       12     1
 8 08       13     1
 9 09       13     1
10 10        7     1
# ℹ 13 more rows

I want to look at this example as it give is an opportunity to deal with another common issue in data cleaning. If you take a look at Group you see it’s either 1 or 2. In this case Group 1 are the control subjects and Group 2 are the threat subjects. Using numbers instead of names to identify levels of a factor is a convention from older methods and software. In more modern software you don’t need to do this sort of number coding (the software works this out in the background).

If you want to change this, you can use the recode_factor() function from dplyr package in the tidyverse (https://dplyr.tidyverse.org/reference/recode.html). For what it’s worth there are several other ways to do this including a recode() function in car. See http://rprogramming.net/recode-data-in-r/ for examples.

Here I’m just going to mutate a new column, namedGroup column with the recoded names:

stereotype_data <- stereotype_data %>% 
  mutate("namedGroup" = dplyr::recode_factor(Group,
                                            "1"="Control", 
                                            "2"="Threat")
                            )
stereotype_data

# A tibble: 23 × 4
   ID    Score Group namedGroup
   <chr> <dbl> <dbl> <fct>     
 1 01        4     1 Control   
 2 02        9     1 Control   
 3 03       12     1 Control   
 4 04        8     1 Control   
 5 05        9     1 Control   
 6 06       13     1 Control   
 7 07       12     1 Control   
 8 08       13     1 Control   
 9 09       13     1 Control   
10 10        7     1 Control   
# ℹ 13 more rows
…
