PSYC 7014: Graduate Statistics 1 - 27 t-test? It’s just a linear model
…
ℹ Use `spec()` to retrieve the full column specification for this data.
ℹ Specify the column types or set `show_col_types = FALSE` to quiet this message.

stereotype_data <- stereotype_data %>% 
  mutate("namedGroup" = dplyr::recode_factor(Group,
                                            "1"="Control (0)", 
                                            "2"="Threat (1)")
                            )
stereotype_data

# A tibble: 23 × 4
   ID    Score Group namedGroup 
   <chr> <dbl> <dbl> <fct>      
 1 01        4     1 Control (0)
 2 02        9     1 Control (0)
 3 03       12     1 Control (0)
 4 04        8     1 Control (0)
 5 05        9     1 Control (0)
 6 06       13     1 Control (0)
 7 07       12     1 Control (0)
 8 08       13     1 Control (0)
 9 09       13     1 Control (0)
10 10        7     1 Control (0)
# ℹ 13 more rows
…
