PSYC 7014: Graduate Statistics 1 - 37 Factorial ANOVA - Post hoc analysis of Main effects
…
dataset$PartID <- seq_along(dataset$score)
dataset$Task <- recode_factor(dataset$Task, 
                              "1" = "Pattern Recognition", 
                              "2" = "Cognitive", 
                              "3" = "Driving Simulation") 
dataset$Smkgrp <- recode_factor(dataset$Smkgrp, 
                                "3" = "Nonsmoking", 
                                "2" = "Delayed", 
                                "1" = "Active")

dataset

# A tibble: 135 × 5
   Task                Smkgrp score covar PartID
   <fct>               <fct>  <dbl> <dbl>  <int>
 1 Pattern Recognition Active     9   107      1
 2 Pattern Recognition Active     8   133      2
 3 Pattern Recognition Active    12   123      3
 4 Pattern Recognition Active    10    94      4
 5 Pattern Recognition Active     7    83      5
 6 Pattern Recognition Active    10    86      6
 7 Pattern Recognition Active     9   112      7
 8 Pattern Recognition Active    11   117      8
 9 Pattern Recognition Active     8   130      9
10 Pattern Recognition Active    10   111     10
# ℹ 125 more rows
…
