PSYC 7014: Graduate Statistics 1 - 38 Template for Analysis & APA Style
…
ℹ Use `spec()` to retrieve the full column specification for this data.
ℹ Specify the column types or set `show_col_types = FALSE` to quiet this message.

# unnecessary here, but if performing planned contrasts you need to factorize predictors (IVs)
dataset$Presentation <- as.factor(dataset$Presentation)
dataset$Lecture <- as.factor(dataset$Lecture)

dataset

# A tibble: 36 × 4
   Lecture Presentation Score PartID
   <fct>   <fct>        <dbl>  <dbl>
 1 Phys    Comp            53      1
 2 Phys    Comp            49      2
 3 Phys    Comp            47      3
 4 Phys    Comp            42      4
 5 Phys    Comp            51      5
 6 Phys    Comp            34      6
 7 Phys    Stand           44      7
 8 Phys    Stand           48      8
 9 Phys    Stand           35      9
10 Phys    Stand           18     10
# ℹ 26 more rows
…
