PSYC 7014: Graduate Statistics 1 - 18 More examples of distributions
…
19.2 Sample

Of course we don’t have time or money to go around getting the height of 1 million men. Instead we get a sample of 25 from our population, pop_men_heights.

We can do this by:

# get a sample of heights
sample_mens_heights <- sample_n(pop_mens_heights, size = 25)
sample_mens_heights

# A tibble: 25 × 2
   person height
    <int>  <dbl>
 1 731455   175.
 2 930817   170.
 3 658082   175.
 4 642767   169.
 5 903667   174.
 6 631238   172.
 7 553502   174.
 8 106059   170.
 9 857770   167.
10 407625   171.
# ℹ 15 more rows
…
