tehrandav.is - Correlations
…
Question 3: Alternatively, covariance may be calculated quickly in R using the cov() function: Remember, once you open up a function, you can press the TAB key to get prompts about what to put in each argument.

# use cov() to calculate the covariance between stress_data$Stress and stress_data$lnSymptoms

Correlation

It may be tempting to calculate our covariance and stop there, but covariance is a limited measure. What I mean by this is that covarience indexes the degree of relationship between two specific variables, but doesn’t allow for more general comparison across situations. For a quick example, lets multiply both Stress and lnSymptoms by two. Let’s use mutate() to create a these by2 columns:

stress_data <- stress_data %>% mutate("Stress_by2" = Stress * 2,
                                    "lnSymptoms_by2" = lnSymptoms * 2
                                    )
stress_data

# A tibble: 107 × 6
      ID Stress Symptoms lnSymptoms Stress_by2 lnSymptoms_by2
   <dbl>  <dbl>    <dbl>      <dbl>      <dbl>          <dbl>
 1     1     30       99       4.60         60           9.19
 2     2     27       94       4.54         54           9.09
 3     3      9       80       4.38         18           8.76
 4     4     20       70       4.25         40           8.50
 5     5      3      100       4.61          6           9.21
 6     6     15      109       4.69         30           9.38
 7     7      5       62       4.13         10           8.25
 8     8     10       81       4.39         20           8.79
 9     9     23       74       4.30         46           8.61
10    10     34      121       4.80         68           9.59
# ℹ 97 more rows
…
