tehrandav.is - The One-way ANOVA
…
dataset <- read_delim("https://www.uvm.edu/~statdhtx/methods8/DataFiles/Ex11-1.dat", 
                      delim = "\t")

Rows: 50 Columns: 2
── Column specification ────────────────────────────────────────────────────────
Delimiter: "\t"
dbl (2): GROUP, RECALL

ℹ Use `spec()` to retrieve the full column specification for this data.
ℹ Specify the column types or set `show_col_types = FALSE` to quiet this message.

show(dataset)

# A tibble: 50 × 2
   GROUP RECALL
   <dbl>  <dbl>
 1     1      9
 2     1      8
 3     1      6
 4     1      8
 5     1     10
 6     1      4
 7     1      6
 8     1      5
 9     1      7
10     1      7
# ℹ 40 more rows
…
Although the focus for this course is conceptual and applied knowledge of statistics, I again want to be mindful of the practice of data analysis. That is, in the real world, you’ll be asked to do some data wrangling, or getting your data in the right format and containing the right information to properly proceed with analysis. When looking at this data, two important things jump out that we might want to address: (1) there is no column indicating participant ID. and (2) the data is numerically coded. A little bit about each of these points.

The importance of a participant ID column

Depending on what statistical software you use, including a Participant ID column varies in its importance. For building statistical models in R that involve categorical data, including designs that that test within and across subjects making sure that you have Participant IDs coded is vitally important. Ideally this will already be done before you import your data, but on the case that it’s not you need to add a column specifying participant ID. How you do this will depend on what format your data is in (Wide v. Long) and whether you have a repeated-measures design (multiple measures from each participant).

** I grant that it might be useful to use you Excel ninja skills here and get everything in its right place before importing, but will assume that you want to stay in an R environment.

In this case, our data is in long format and we have a between subjects design. That is every line represents a single measure of a participant and every participant is represented only once. In this case we can just assign a unique number to each participant / row. In most cases this is a simple as assigning participant numbers {1,2,3…n}. An easy way to do this is to use the seq_along() function. The seq_along() function simply says to create numbers in sequence that match along a vector. In this case we can seq_along the GROUP column (vector).

dataset <- dataset %>% mutate(PartID = seq_along(dataset$GROUP))
dataset

# A tibble: 50 × 3
   GROUP RECALL PartID
   <dbl>  <dbl>  <int>
 1     1      9      1
 2     1      8      2
 3     1      6      3
 4     1      8      4
 5     1     10      5
 6     1      4      6
 7     1      6      7
 8     1      5      8
 9     1      7      9
10     1      7     10
# ℹ 40 more rows
…
